[
  {
    "text": "Tutorial ADCP Documentation",
    "url": "https://www.gatsbyjs.com/docs/tutorial/getting-started/",
    "description": "A great place to get started if you're new to web development. Designed to guide you through setting up your first Gatsby site.",
    "functionalArea": "Documentation"
  },
  {
    "text": "How to Guides ADCP Documentation",
    "url": "https://www.gatsbyjs.com/docs/how-to/",
    "description": "Practical step-by-step guides to help you achieve a specific goal. Most useful when you're trying to get something done.",
    "functionalArea": "Documentation"
  },
  {
    "text": "Reference Guides ADCP Documentation",
    "url": "https://www.gatsbyjs.com/docs/reference/",
    "description": "Nitty-gritty technical descriptions of how Gatsby works. Most useful when you need detailed information about Gatsby's APIs.",
    "functionalArea": "Documentation"
  },
  {
    "text": "Conceptual Guides ADCP Documentation",
    "url": "https://www.gatsbyjs.com/docs/conceptual/",
    "description": "Big-picture explanations of higher-level Gatsby concepts. Most useful for building understanding of a particular topic.",
    "functionalArea": "Documentation"
  },
  {
    "text": "Plugin Library ADCP Documentation",
    "url": "https://www.gatsbyjs.com/plugins",
    "description": "Add functionality and customize your Gatsby site or app with thousands of plugins built by our amazing developer community.",
    "functionalArea": "Documentation"
  },
  {
    "text": "Build and Host ADCP Documentation",
    "url": "https://www.gatsbyjs.com/cloud",
    "badge": true,
    "description": "Now you’re ready to show the world! Give your Gatsby site superpowers: Build and host on Gatsby Cloud. Get started for free!",
    "functionalArea": "Documentation"
  },
  {
    "text": "Tutorial ADCP Templates",
    "url": "https://www.gatsbyjs.com/docs/tutorial/getting-started/",
    "description": "A great place to get started if you're new to web development. Designed to guide you through setting up your first Gatsby site.",
    "functionalArea": "Templates"
  },
  {
    "text": "How to Guides ADCP Templates",
    "url": "https://www.gatsbyjs.com/docs/how-to/",
    "description": "Practical step-by-step guides to help you achieve a specific goal. Most useful when you're trying to get something done.",
    "functionalArea": "Templates"
  },
  {
    "text": "Reference Guides ADCP Templates",
    "url": "https://www.gatsbyjs.com/docs/reference/",
    "description": "Nitty-gritty technical descriptions of how Gatsby works. Most useful when you need detailed information about Gatsby's APIs.",
    "functionalArea": "Templates"
  },
  {
    "text": "Conceptual Guides ADCP Templates",
    "url": "https://www.gatsbyjs.com/docs/conceptual/",
    "description": "Big-picture explanations of higher-level Gatsby concepts. Most useful for building understanding of a particular topic.",
    "functionalArea": "Templates"
  },
  {
    "text": "Plugin Library ADCP Templates",
    "url": "https://www.gatsbyjs.com/plugins",
    "description": "Add functionality and customize your Gatsby site or app with thousands of plugins built by our amazing developer community.",
    "functionalArea": "Templates"
  },
  {
    "text": "Build and Host ADCP Templates",
    "url": "https://www.gatsbyjs.com/cloud",
    "badge": true,
    "description": "Now you’re ready to show the world! Give your Gatsby site superpowers: Build and host on Gatsby Cloud. Get started for free!",
    "functionalArea": "Templates"
  },
  {
    "text": "Platform",
    "url": "https://www.gatsbyjs.com/cloud",
    "badge": true,
    "description": "Now you’re ready to show the world! Give your Gatsby site superpowers: Build and host on Gatsby Cloud. Get started for free!",
    "functionalArea": "Platform"
  }
]
